0	1.556625E-08	2	0.00000022
2	1.164876E-08	3	0.00000034
4	1.389411E-08	4	0.00000045
6	1.557024E-08	7	0.00000079
8	1.763098E-08	9	0.000001
10	1.992688E-08	15	0.0000017
12	2.059104E-08	20	0.0000023
14	2.212292E-08	25	0.0000029
16	2.445383E-08	30	0.0000034
18	2.573417E-08	35	0.000004
20	2.673982E-08	40	0.0000046
22	2.81095E-08	45	0.0000051
24	2.894676E-08	50	0.0000057
26	2.994905E-08	55	0.0000062
28	3.133481E-08	60	0.0000068
30	0.000000032	65	0.0000074
32	3.261854E-08	70	0.0000079
34	3.331845E-08	75	0.0000084
36	3.413577E-08	80	0.000009
38	3.455718E-08	85	0.0000095
40	3.456483E-08	90	0.0000101
42	3.478229E-08	95	0.0000106
44	3.505359E-08	100	0.0000112
46	3.524509E-08	105	0.0000118
48	3.527563E-08	110	0.0000123
50	3.551169E-08	115	0.0000128
52	3.5862E-08	120	0.0000134
54	3.562352E-08	125	0.0000139
56	3.611047E-08	130	0.0000145
58	3.566539E-08	135	0.000015
60	0.000000036	140	0.0000156
62	0.000000036	145	0.0000162
64	0.000000036	150	0.0000167
66	3.624118E-08	155	0.0000172
68	3.632232E-08	160	0.0000178
70	3.624436E-08	165	0.0000184
72	3.648331E-08	170	0.0000189
74	3.668617E-08	175	0.0000195
76	3.668045E-08	180	0.00002
78	0.000000037	185	0.0000206
80	0.000000037	190	0.0000211
82	3.691065E-08	195	0.0000217
84	3.707174E-08	200	0.0000222
86	3.715957E-08	205	0.0000228
88	3.718228E-08	210	0.0000233
90	3.724505E-08	215	0.0000239
92	3.705171E-08	220	0.0000245
94	3.71881E-08	225	0.000025
96	3.744163E-08	230	0.0000256
98	3.747116E-08	240	0.0000267
100	3.746337E-08	250	0.0000278
102	3.749242E-08	260	0.0000289
104	3.756906E-08	270	0.00003
106	3.751125E-08	280	0.0000311
108	3.74629E-08	290	0.0000323
110	3.766646E-08	300	0.0000334
112	3.769642E-08	310	0.0000345
114	3.761847E-08	320	0.0000356
116	3.781719E-08	330	0.0000367
118	3.765432E-08	340	0.0000379
120	3.787644E-08	350	0.000039
122	3.766851E-08	360	0.00004045
124	3.777349E-08	370	0.0000416
126	3.78765E-08	380	0.0000427
128	3.784058E-08	390	0.0000438
130	0.000000038	400	0.000045
132	3.811547E-08	0	0
134	0.000000038	0	0
136	3.81524E-08	0	0
138	3.831635E-08	0	0
140	3.817948E-08	0	0
142	3.824284E-08	0	0
144	3.831102E-08	0	0
146	3.813676E-08	0	0
148	3.818515E-08	0	0
150	3.851396E-08	0	0
152	3.836068E-08	0	0
154	3.852457E-08	0	0
156	3.850244E-08	0	0
158	3.832817E-08	0	0
160	3.842001E-08	0	0
162	3.842969E-08	0	0
164	3.868361E-08	0	0
166	3.856486E-08	0	0
168	3.845802E-08	0	0
170	3.857437E-08	0	0
172	3.864805E-08	0	0
174	3.867936E-08	0	0
176	3.87803E-08	0	0
178	3.863025E-08	0	0
180	3.858107E-08	0	0
182	3.872085E-08	0	0
184	3.875533E-08	0	0
186	3.864312E-08	0	0
188	3.875598E-08	0	0
190	3.872618E-08	0	0
192	3.878402E-08	0	0
194	3.883572E-08	0	0
196	3.879336E-08	0	0
198	3.88263E-08	0	0
200	3.894685E-08	0	0
202	3.886955E-08	0	0
204	3.89133E-08	0	0
206	0.000000039	0	0
208	3.879055E-08	0	0
210	3.890377E-08	0	0
212	0.000000039	0	0
214	3.907505E-08	0	0
216	3.908996E-08	0	0
218	3.925047E-08	0	0
220	0.000000039	0	0
222	0.000000039	0	0
224	3.911734E-08	0	0
226	3.925257E-08	0	0
228	3.932961E-08	0	0
230	3.921959E-08	0	0
232	3.91804E-08	0	0
234	3.945755E-08	0	0
236	3.930605E-08	0	0
238	3.942774E-08	0	0
240	3.934835E-08	0	0
242	3.940801E-08	0	0
244	3.960005E-08	0	0
246	3.961305E-08	0	0
248	3.95837E-08	0	0
250	3.961759E-08	0	0
252	3.955049E-08	0	0
254	3.963491E-08	0	0
256	3.971468E-08	0	0
258	3.987151E-08	0	0
260	3.975281E-08	0	0
262	3.987211E-08	0	0
264	0.00000004	0	0
266	4.005648E-08	0	0
268	4.011019E-08	0	0
270	4.022093E-08	0	0
272	4.011329E-08	0	0
274	4.037375E-08	0	0
276	4.033253E-08	0	0
278	4.043752E-08	0	0
280	4.040088E-08	0	0
282	4.045628E-08	0	0
284	4.044446E-08	0	0
286	4.063114E-08	0	0
288	4.068242E-08	0	0
290	4.088746E-08	0	0
292	4.086576E-08	0	0
294	4.086469E-08	0	0
296	0.000000041	0	0
298	4.105248E-08	0	0
300	4.113509E-08	0	0
302	4.124982E-08	0	0
304	4.128855E-08	0	0
306	4.127696E-08	0	0
308	4.130275E-08	0	0
310	4.135751E-08	0	0
312	4.16306E-08	0	0
314	4.157276E-08	0	0
316	4.16165E-08	0	0
318	4.169393E-08	0	0
320	4.162471E-08	0	0
322	4.169963E-08	0	0
324	4.169876E-08	0	0
326	4.187418E-08	0	0
328	0.000000042	0	0
330	4.193044E-08	0	0
332	0.000000042	0	0
334	0.000000042	0	0
336	0.000000042	0	0
338	4.215734E-08	0	0
340	4.212216E-08	0	0
342	4.212037E-08	0	0
344	4.211972E-08	0	0
346	4.213777E-08	0	0
348	4.239257E-08	0	0
350	4.228626E-08	0	0
352	4.239961E-08	0	0
354	4.245581E-08	0	0
356	4.235651E-08	0	0
358	4.238525E-08	0	0
360	4.242635E-08	0	0
362	4.25959E-08	0	0
364	4.255392E-08	0	0
366	4.254111E-08	0	0
368	4.267877E-08	0	0
370	4.264832E-08	0	0
372	4.261568E-08	0	0
374	4.275812E-08	0	0
376	4.26632E-08	0	0
378	4.270622E-08	0	0
380	4.277594E-08	0	0
382	4.280758E-08	0	0
384	4.281593E-08	0	0
386	4.292384E-08	0	0
388	4.294503E-08	0	0
390	4.290037E-08	0	0
392	4.292681E-08	0	0
394	4.294025E-08	0	0
396	4.311407E-08	0	0
398	4.317156E-08	0	0
400	0.000000043	0	0
402	4.316113E-08	0	0
404	4.318276E-08	0	0
406	4.320009E-08	0	0
408	4.314438E-08	0	0
410	4.307651E-08	0	0
412	4.329319E-08	0	0
414	4.325042E-08	0	0
416	4.31959E-08	0	0
418	4.320842E-08	0	0
420	4.329822E-08	0	0
422	4.332318E-08	0	0
424	4.328743E-08	0	0
426	4.334954E-08	0	0
428	4.334906E-08	0	0
430	4.352233E-08	0	0
432	4.353884E-08	0	0
434	4.343792E-08	0	0
436	4.356694E-08	0	0
438	4.351835E-08	0	0
440	4.360319E-08	0	0
442	4.370022E-08	0	0
444	4.361382E-08	0	0
446	4.370863E-08	0	0
448	4.374965E-08	0	0
450	4.368089E-08	0	0
452	4.364394E-08	0	0
454	4.384327E-08	0	0
456	4.36663E-08	0	0
458	4.381583E-08	0	0
460	4.372044E-08	0	0
462	4.391128E-08	0	0
464	4.378463E-08	0	0
466	0.000000044	0	0
468	0.000000044	0	0
470	4.393969E-08	0	0
472	0.000000044	0	0
474	4.392146E-08	0	0
476	0.000000044	0	0
478	4.394133E-08	0	0
480	4.393466E-08	0	0
482	4.412368E-08	0	0
484	4.41635E-08	0	0
486	0.000000044	0	0
488	4.409854E-08	0	0
490	0.000000044	0	0
492	4.416813E-08	0	0
494	4.412335E-08	0	0
496	4.427415E-08	0	0
498	4.413939E-08	0	0
500	4.428717E-08	0	0

